Employee Id		Taxable Income 		Tax
1111			100000.00			24497.00
2222			90000.00			20797.00
1234			12412.00			0.0
2134			52000.00			8447.0
1242			124215.00			33456.55
1423			67000.00			13322.0
1423			50493.00			7957.225
2134			124124.00			33422.88
7654			67000.00			13322.0
7656			236247.00			54097.0
7657			326437.00			54097.00
9604			1000.00			0.00
1153			124125.00			33423.25
5341			80000.00			17547.00
6743			80000.00			17547.00
1256			603234.00			54097.00
